{
  "project_info": {
    "project_number": "606728067441",
    "firebase_url": "https://iproms-project.firebaseio.com",
    "project_id": "iproms-project",
    "storage_bucket": "iproms-project.appspot.com"
  },
  "client": [
    {
      "client_info": {
        "mobilesdk_app_id": "1:606728067441:android:42fd932a2cb29aa0",
        "android_client_info": {
          "package_name": "com.itant.iproms"
        }
      },
      "oauth_client": [
        {
          "client_id": "606728067441-rb59ghgeslfph7jt312c7t4ecfjj6tn1.apps.googleusercontent.com",
          "client_type": 1,
          "android_info": {
            "package_name": "com.itant.iproms",
            "certificate_hash": "7697fd7f1b9b5aaa28698c55cf85d9e11ea2d08f"
          }
        },
        {
          "client_id": "606728067441-5vcn0ebl0gck9kine0017if8172shr9i.apps.googleusercontent.com",
          "client_type": 1,
          "android_info": {
            "package_name": "com.itant.iproms",
            "certificate_hash": "eb62e71f6673b42e1169b1a04dcd91d08af948c8"
          }
        },
        {
          "client_id": "606728067441-ij3v64ehk5k2s7cesgtp2410jch6nkti.apps.googleusercontent.com",
          "client_type": 3
        }
      ],
      "api_key": [
        {
          "current_key": "AIzaSyAvO1j4fm4z4IRfE_HHxw28NfqJdqpEJaM"
        }
      ],
      "services": {
        "analytics_service": {
          "status": 1
        },
        "appinvite_service": {
          "status": 2,
          "other_platform_oauth_client": [
            {
              "client_id": "606728067441-ij3v64ehk5k2s7cesgtp2410jch6nkti.apps.googleusercontent.com",
              "client_type": 3
            }
          ]
        },
        "ads_service": {
          "status": 2
        }
      }
    }
  ],
  "configuration_version": "1"
}